{
    "items": [
        {
            "RNUM": 1,
            "ID_ATENDIMENTO": 16946,
            "NOME_PACIENTE": "Aurora Amaral Garcia",
            "ENDERECO": "Rua Evaldo de Oliveira(Lot Jd Fazendinha), 254  - Engenho do Mato, Niteroi - RJ, 24344102",
            "TELEFONES": "21965578918",
            "PESSOACONTATO": ".",
            "EMAIL": ".",
            "TIPOVISITA": "ID - Pediatria",
            "PROFISSIONAL": "Erika Cristine Patricio Braga da Costa",
            "ESPECIALIDADE": "Medico",
            "PERIODICIDADE": "1 x semana",
            "DTNASCTO": "2021-05-20T03:00:00.000Z",
            "CPF": "22578565708",
            "DT_VISITA": "2025-12-02"
        },
        {
            "RNUM": 2,
            "ID_ATENDIMENTO": 27870,
            "NOME_PACIENTE": "Marcelo Dias de Azevedo Filho",
            "ENDERECO": "Rua Edite de Andrade, 91 Casa - Luz, Nova Iguacu - RJ, 26256100",
            "TELEFONES": "21994421509",
            "PESSOACONTATO": "Clara mae ",
            "EMAIL": null,
            "TIPOVISITA": "ID - Pediatria",
            "PROFISSIONAL": "Monica Scalzilli de Souza",
            "ESPECIALIDADE": "Medico",
            "PERIODICIDADE": "1 x semana",
            "DTNASCTO": "2011-11-22T02:00:00.000Z",
            "CPF": "17082702735",
            "DT_VISITA": "2025-12-05"
        },
        {
            "RNUM": 3,
            "ID_ATENDIMENTO": 27922,
            "NOME_PACIENTE": "Joao Henrique Silva dos Santos",
            "ENDERECO": "Rua Jasmins, LOTE 1 Quadra 8, 3ª rua atras do campo Palmeirinha. - Jardim América, Belford Roxo - RJ, 26153240",
            "TELEFONES": "21979724201",
            "PESSOACONTATO": "Rosana",
            "EMAIL": null,
            "TIPOVISITA": "ID - Pediatria",
            "PROFISSIONAL": "Gabriela Neto Paiva Amaral",
            "ESPECIALIDADE": "Medico",
            "PERIODICIDADE": "Quinzenal",
            "DTNASCTO": "2013-07-08T03:00:00.000Z",
            "CPF": "19513622762",
            "DT_VISITA": "2025-12-03"
        },
        {
            "RNUM": 4,
            "ID_ATENDIMENTO": 32248,
            "NOME_PACIENTE": "Wanda de Noronha Fernandes",
            "ENDERECO": "Rua Ana Silva, 100 Bloco 2 apto 607 - Pechincha, Rio de Janeiro - RJ, 22740300",
            "TELEFONES": "21982215936",
            "PESSOACONTATO": "Valeria filha",
            "EMAIL": null,
            "TIPOVISITA": "AD - Adulto",
            "PROFISSIONAL": "Fernanda Nunes Crass Fernandes de Sousa",
            "ESPECIALIDADE": "Medico",
            "PERIODICIDADE": "Mensal",
            "DTNASCTO": "1942-04-28T03:00:00.000Z",
            "CPF": "55276709734",
            "DT_VISITA": "2025-12-01"
        },
        {
            "RNUM": 5,
            "ID_ATENDIMENTO": 32308,
            "NOME_PACIENTE": "Ester de Jesus de Oliveira",
            "ENDERECO": "Rua César Zama, 74 Bloco 01 - Apto 112 - Lins de Vasconcelos, Rio de Janeiro - RJ, 20725090",
            "TELEFONES": "21981994823",
            "PESSOACONTATO": "Ana Maria - Mãe",
            "EMAIL": null,
            "TIPOVISITA": "ID - Pediatria",
            "PROFISSIONAL": "Renata Lemos Marçal",
            "ESPECIALIDADE": "Medico",
            "PERIODICIDADE": "1 x semana",
            "DTNASCTO": "2016-05-16T03:00:00.000Z",
            "CPF": "19286391781",
            "DT_VISITA": "2025-12-03"
        },
        {
            "RNUM": 6,
            "ID_ATENDIMENTO": 32353,
            "NOME_PACIENTE": "Felipe de Sousa Esteves",
            "ENDERECO": "Rua São Clemente, 462 Apt 101 - Botafogo, Rio de Janeiro - RJ, 22260007",
            "TELEFONES": "21996330105",
            "PESSOACONTATO": "Sandra mãe",
            "EMAIL": null,
            "TIPOVISITA": "ID - Adulto",
            "PROFISSIONAL": "Rosalia Donato de Andrade ",
            "ESPECIALIDADE": "Enfermeiro",
            "PERIODICIDADE": "Quinzenal",
            "DTNASCTO": "1980-02-14T03:00:00.000Z",
            "CPF": "08866053775",
            "DT_VISITA": "2025-12-02"
        },
        {
            "RNUM": 7,
            "ID_ATENDIMENTO": 32370,
            "NOME_PACIENTE": "Maria Ignez Ribeiro Fischer",
            "ENDERECO": "Rua Marques de Sao Vicente, 256 Apto 409 - Gavea, Rio de Janeiro - RJ, 22451-045",
            "TELEFONES": "21971497892",
            "PESSOACONTATO": "Claudio esposo",
            "EMAIL": null,
            "TIPOVISITA": "ID - Adulto",
            "PROFISSIONAL": "Ricardo Amendoeiras Nunes",
            "ESPECIALIDADE": "Medico",
            "PERIODICIDADE": "1 x semana",
            "DTNASCTO": "1949-01-22T03:00:00.000Z",
            "CPF": "02675491721",
            "DT_VISITA": "2025-12-01"
        },
        {
            "RNUM": 8,
            "ID_ATENDIMENTO": 32414,
            "NOME_PACIENTE": "Maria Jose Sisnande do Carmo",
            "ENDERECO": "Rua Vereador Alberto Rocha Possa, 110  - Éden, Sao Joao de Meriti - RJ, 25535430",
            "TELEFONES": "21969075316",
            "PESSOACONTATO": ".",
            "EMAIL": null,
            "TIPOVISITA": "AD - Adulto",
            "PROFISSIONAL": "Alexandro Feitosa Mesquita",
            "ESPECIALIDADE": "Medico",
            "PERIODICIDADE": "Mensal",
            "DTNASCTO": "1940-03-11T03:00:00.000Z",
            "CPF": "06301673700",
            "DT_VISITA": "2025-12-01"
        },
        {
            "RNUM": 9,
            "ID_ATENDIMENTO": 32470,
            "NOME_PACIENTE": "Valentina de Lemos Melo",
            "ENDERECO": " Rua Bom Jesus, 24 Casa 1  - Santa Cruz, Rio de Janeiro - RJ, 65045-140",
            "TELEFONES": "21968476344",
            "PESSOACONTATO": "Isabela Mãe",
            "EMAIL": null,
            "TIPOVISITA": "ID - Pediatria",
            "PROFISSIONAL": "Matheus Scalzilli de Souza Goncalves",
            "ESPECIALIDADE": "Medico",
            "PERIODICIDADE": "Quinzenal",
            "DTNASCTO": "2019-05-07T03:00:00.000Z",
            "CPF": "21610574729",
            "DT_VISITA": "2025-12-01"
        },
        {
            "RNUM": 10,
            "ID_ATENDIMENTO": 32719,
            "NOME_PACIENTE": "Beatriz dos Santos Braga Soares",
            "ENDERECO": "Rua Espumas, 390 Casa - Jardim Guanabara, Rio de Janeiro - RJ, 21941170",
            "TELEFONES": "21991435075",
            "PESSOACONTATO": "Vinicius pai",
            "EMAIL": null,
            "TIPOVISITA": "ID - Pediatria",
            "PROFISSIONAL": "Monica Scalzilli de Souza",
            "ESPECIALIDADE": "Medico",
            "PERIODICIDADE": "1 x semana",
            "DTNASCTO": "2015-08-25T03:00:00.000Z",
            "CPF": "21641405759",
            "DT_VISITA": "2025-12-05"
        }
    ],
    "meta": {
        "totalItems": 59,
        "totalPages": 6,
        "nextPage": 2,
        "currentPage": 1,
        "previousPage": false,
        "itemsPerPage": 10
    }
}
